{"page":1,"total_results":19832,"total_pages":992,"results":[{"vote_count":185,"id":301528,"video":false,"vote_average":7.4,"title":"Toy Story 4","popularity":326.915,"poster_path":"\/w9kR8qbmQ01HwnvK4alvnQ2ca0L.jpg","original_language":"en","original_title":"Toy Story 4","genre_ids":[12,16,35,10751],"backdrop_path":"\/m67smI1IIMmYzCl9axvKNULVKLr.jpg","adult":false,"overview":"Woody has always been confident about his place in the world and that his priority is taking care of his kid, whether that's Andy or Bonnie. But when Bonnie adds a reluctant new toy called \"Forky\" to her room, a road trip adventure alongside old and new friends will show Woody how big the world can be for a toy.","release_date":"2019-06-19"},{"vote_count":879,"id":320288,"video":false,"vote_average":6.3,"title":"Dark Phoenix","popularity":246.408,"poster_path":"\/kZv92eTc0Gg3mKxqjjDAM73z9cy.jpg","original_language":"en","original_title":"Dark Phoenix","genre_ids":[878,28],"backdrop_path":"\/phxiKFDvPeQj4AbkvJLmuZEieDU.jpg","adult":false,"overview":"The X-Men face their most formidable and powerful foe when one of their own, Jean Grey, starts to spiral out of control. During a rescue mission in outer space, Jean is nearly killed when she's hit by a mysterious cosmic force. Once she returns home, this force not only makes her infinitely more powerful, but far more unstable. The X-Men must now band together to save her soul and battle aliens that want to use Grey's new abilities to rule the galaxy.","release_date":"2019-06-05"},{"vote_count":255,"id":479455,"video":false,"vote_average":6.1,"title":"Men in Black: International","popularity":201.83,"poster_path":"\/dPrUPFcgLfNbmDL8V69vcrTyEfb.jpg","original_language":"en","original_title":"Men in Black: International","genre_ids":[28,35,878,12],"backdrop_path":"\/2FYzxgLNuNVwncilzUeCGbOQzP7.jpg","adult":false,"overview":"The Men in Black have always protected the Earth from the scum of the universe. In this new adventure, they tackle their biggest, most global threat to date: a mole in the Men in Black organization.","release_date":"2019-06-12"},{"vote_count":5861,"id":299537,"video":false,"vote_average":7,"title":"Captain Marvel","popularity":177.765,"poster_path":"\/AtsgWhDnHTq68L0lLsUrCnM7TjG.jpg","original_language":"en","original_title":"Captain Marvel","genre_ids":[28,12,878],"backdrop_path":"\/w2PMyoyLU22YvrGK3smVM9fW1jj.jpg","adult":false,"overview":"The story follows Carol Danvers as she becomes one of the universe’s most powerful heroes when Earth is caught in the middle of a galactic war between two alien races. Set in the 1990s, Captain Marvel is an all-new adventure from a previously unseen period in the history of the Marvel Cinematic Universe.","release_date":"2019-03-06"},{"vote_count":1765,"id":420817,"video":false,"vote_average":7.2,"title":"Aladdin","popularity":162.913,"poster_path":"\/3iYQTLGoy7QnjcUYRJy4YrAgGvp.jpg","original_language":"en","original_title":"Aladdin","genre_ids":[12,14,10749,35,10751],"backdrop_path":"\/v4yVTbbl8dE1UP2dWu5CLyaXOku.jpg","adult":false,"overview":"A kindhearted street urchin named Aladdin embarks on a magical adventure after finding a lamp that releases a wisecracking genie while a power-hungry Grand Vizier vies for the same lamp that has the power to make their deepest wishes come true.","release_date":"2019-05-22"},{"vote_count":24,"id":532321,"video":false,"vote_average":5,"title":"Re: Zero kara Hajimeru Isekai Seikatsu - Memory Snow","popularity":147.322,"poster_path":"\/xqR4ABkFTFYe8NDJi3knwWX7zfn.jpg","original_language":"ja","original_title":"Re:ゼロから始める異世界生活 Memory Snow","genre_ids":[16,12],"backdrop_path":"\/8sNz2DxYiYqGkxk66U8BqvuZZjE.jpg","adult":false,"overview":"Subaru and friends finally get a moment of peace, and Subaru goes on a certain secret mission that he must not let anyone find out about! However, even though Subaru is wearing a disguise, Petra and other children of the village immediately figure out who he is. Now that his mission was exposed within five seconds of it starting, what will happen with Subaru's \"date course\" with Emilia?","release_date":"2018-10-06"},{"vote_count":1192,"id":458156,"video":false,"vote_average":7.2,"title":"John Wick: Chapter 3 – Parabellum","popularity":129.572,"poster_path":"\/ziEuG1essDuWuC5lpWUaw1uXY2O.jpg","original_language":"en","original_title":"John Wick: Chapter 3 – Parabellum","genre_ids":[80,28,53],"backdrop_path":"\/vVpEOvdxVBP2aV166j5Xlvb5Cdc.jpg","adult":false,"overview":"Super-assassin John Wick returns with a $14 million price tag on his head and an army of bounty-hunting killers on his trail. After killing a member of the shadowy international assassin’s guild, the High Table, John Wick is excommunicado, but the world’s most ruthless hit men and women await his every turn.","release_date":"2019-05-15"},{"vote_count":1316,"id":329996,"video":false,"vote_average":6.5,"title":"Dumbo","popularity":121.888,"poster_path":"\/279PwJAcelI4VuBtdzrZASqDPQr.jpg","original_language":"en","original_title":"Dumbo","genre_ids":[12,10751,14],"backdrop_path":"\/5tFt6iuGnKapHl5tw0X0cKcnuVo.jpg","adult":false,"overview":"A young elephant, whose oversized ears enable him to fly, helps save a struggling circus, but when the circus plans a new venture, Dumbo and his friends discover dark secrets beneath its shiny veneer.","release_date":"2019-03-27"},{"vote_count":543,"id":514999,"video":false,"vote_average":6.5,"title":"Murder Mystery","popularity":113.438,"poster_path":"\/bSMSO9xupd4R4vwTPqigHn2quLN.jpg","original_language":"en","original_title":"Murder Mystery","genre_ids":[35,80,9648,28],"backdrop_path":"\/qeFO3u2IqbAeIT1Xgo6POqYbCaQ.jpg","adult":false,"overview":"After attending a gathering on a billionaire's yacht during a European vacation, a New York cop and his wife become prime suspects when he's murdered.","release_date":"2019-06-14"},{"vote_count":7098,"id":299534,"video":false,"vote_average":8.4,"title":"Avengers: Endgame","popularity":107.373,"poster_path":"\/or06FN3Dka5tukK1e9sl16pB3iy.jpg","original_language":"en","original_title":"Avengers: Endgame","genre_ids":[12,878,28],"backdrop_path":"\/7RyHsO4yDXtBv1zUU3mTpHeQ0d5.jpg","adult":false,"overview":"After the devastating events of Avengers: Infinity War, the universe is in ruins due to the efforts of the Mad Titan, Thanos. With the help of remaining allies, the Avengers must assemble once more in order to undo Thanos' actions and restore order to the universe once and for all, no matter what consequences may be in store.","release_date":"2019-04-24"},{"vote_count":14087,"id":299536,"video":false,"vote_average":8.3,"title":"Avengers: Infinity War","popularity":104.105,"poster_path":"\/7WsyChQLEftFiDOVTGkv3hFpyyt.jpg","original_language":"en","original_title":"Avengers: Infinity War","genre_ids":[12,28,14],"backdrop_path":"\/bOGkgRGdhrBYJSLpXaxhXVstddV.jpg","adult":false,"overview":"As the Avengers and their allies have continued to protect the world from threats too large for any one hero to handle, a new danger has emerged from the cosmic shadows: Thanos. A despot of intergalactic infamy, his goal is to collect all six Infinity Stones, artifacts of unimaginable power, and use them to inflict his twisted will on all of reality. Everything the Avengers have fought for has led up to this moment - the fate of Earth and existence itself has never been more uncertain.","release_date":"2018-04-25"},{"vote_count":2112,"id":399579,"video":false,"vote_average":6.7,"title":"Alita: Battle Angel","popularity":100.437,"poster_path":"\/xRWht48C2V8XNfzvPehyClOvDni.jpg","original_language":"en","original_title":"Alita: Battle Angel","genre_ids":[28,878,53,12],"backdrop_path":"\/aQXTw3wIWuFMy0beXRiZ1xVKtcf.jpg","adult":false,"overview":"When Alita awakens with no memory of who she is in a future world she does not recognize, she is taken in by Ido, a compassionate doctor who realizes that somewhere in this abandoned cyborg shell is the heart and soul of a young woman with an extraordinary past.","release_date":"2019-01-31"},{"vote_count":44,"id":280960,"video":false,"vote_average":4.5,"title":"Catarina and the others","popularity":99.744,"poster_path":"\/kZMCbp0o46Tsg43omSHNHJKNTx9.jpg","original_language":"pt","original_title":"Catarina e os Outros","genre_ids":[18,9648],"backdrop_path":"\/8FfD5WXHrJLx0r4expl9IIBMsOW.jpg","adult":false,"overview":"Outside, the first sun rays break the dawn.  Sixteen years old Catarina can't fall asleep.  Inconsequently, in the big city adults are moved by desire...  Catarina found she is HIV positive. She wants to drag everyone else along.","release_date":"2011-03-01"},{"vote_count":7594,"id":920,"video":false,"vote_average":6.7,"title":"Cars","popularity":98.689,"poster_path":"\/jpfkzbIXgKZqCZAkEkFH2VYF63s.jpg","original_language":"en","original_title":"Cars","genre_ids":[16,12,35,10751],"backdrop_path":"\/a1MlbLBk5Sy6YvMbSuKfwGlDVlb.jpg","adult":false,"overview":"Lightning McQueen, a hotshot rookie race car driven to succeed, discovers that life is about the journey, not the finish line, when he finds himself unexpectedly detoured in the sleepy Route 66 town of Radiator Springs. On route across the country to the big Piston Cup Championship in California to compete against two seasoned pros, McQueen gets to know the town's offbeat characters.","release_date":"2006-06-08"},{"vote_count":15,"id":566555,"video":false,"vote_average":4.4,"title":"Detective Conan: The Fist of Blue Sapphire","popularity":95.075,"poster_path":"\/86Y6qM8zTn3PFVfCm9J98Ph7JEB.jpg","original_language":"ja","original_title":"名探偵コナン 紺青の拳（フィスト）","genre_ids":[16,28,18,9648,35],"backdrop_path":"\/wf6VDSi4aFCZfuD8sX8JAKLfJ5m.jpg","adult":false,"overview":"23rd movie in the \"Detective Conan\" franchise.","release_date":"2019-04-12"},{"vote_count":623,"id":373571,"video":false,"vote_average":6.3,"title":"Godzilla: King of the Monsters","popularity":91.357,"poster_path":"\/pU3bnutJU91u3b4IeRPQTOP8jhV.jpg","original_language":"en","original_title":"Godzilla: King of the Monsters","genre_ids":[878,28,53],"backdrop_path":"\/uovH5k4BAEPqXqxgwVrTtqH169g.jpg","adult":false,"overview":"The new story follows the heroic efforts of the crypto-zoological agency Monarch as its members face off against a battery of god-sized monsters, including the mighty Godzilla, who collides with Mothra, Rodan, and his ultimate nemesis, the three-headed King Ghidorah. When these ancient super-species—thought to be mere myths—rise again, they all vie for supremacy, leaving humanity’s very existence hanging in the balance.","release_date":"2019-05-29"},{"vote_count":8,"id":480042,"video":false,"vote_average":4.6,"title":"Escape Plan: The Extractors","popularity":87.599,"poster_path":"\/Au7tg0IcN9SDTEi2tlJwxB9RLYt.jpg","original_language":"en","original_title":"Escape Plan: The Extractors","genre_ids":[28,53],"backdrop_path":"\/ygWKYTu7OnZKF9H5NsgjL9iURGV.jpg","adult":false,"overview":"TBD: The daughter of a Hong Kong tech executive goes missing in what appears to be a routine ransom job. As Breslin and his crew delve deeper, they discover the culprit is the deranged son of one of their former foes, who also kidnapped Breslin's love and is holding her inside the massive prison known as Devil's Station.","release_date":"2019-06-20"},{"vote_count":40,"id":533642,"video":false,"vote_average":5.5,"title":"Child's Play","popularity":81.863,"poster_path":"\/Y6VAJ21VjNtLmoTKYIXfbilfdI.jpg","original_language":"en","original_title":"Child's Play","genre_ids":[27],"backdrop_path":"\/1TMdk250An49gSLUZNUnXKqXzmE.jpg","adult":false,"overview":"The story follows a mother named Karen, who gives her son Andy a toy doll for his birthday, unaware of its sinister nature.","release_date":"2019-06-19"},{"vote_count":46,"id":486131,"video":false,"vote_average":5,"title":"Shaft","popularity":76.808,"poster_path":"\/kfZqwGuvEBAysAbCsa0QLKoSYR.jpg","original_language":"en","original_title":"Shaft","genre_ids":[28,80],"backdrop_path":"\/2JS5guOh3hj3WgMhbMHPZDSU1HJ.jpg","adult":false,"overview":"JJ, aka John Shaft Jr., may be a cyber security expert with a degree from MIT, but to uncover the truth behind his best friend’s untimely death, he needs an education only his dad can provide. Absent throughout JJ’s youth, the legendary locked-and-loaded John Shaft agrees to help his progeny navigate Harlem’s heroin-infested underbelly.","release_date":"2019-06-14"},{"vote_count":2100,"id":166428,"video":false,"vote_average":7.7,"title":"How to Train Your Dragon: The Hidden World","popularity":73.675,"poster_path":"\/xvx4Yhf0DVH8G4LzNISpMfFBDy2.jpg","original_language":"en","original_title":"How to Train Your Dragon: The Hidden World","genre_ids":[16,10751,12],"backdrop_path":"\/lFwykSz3Ykj1Q3JXJURnGUTNf1o.jpg","adult":false,"overview":"As Hiccup fulfills his dream of creating a peaceful dragon utopia, Toothless’ discovery of an untamed, elusive mate draws the Night Fury away. When danger mounts at home and Hiccup’s reign as village chief is tested, both dragon and rider must make impossible decisions to save their kind.","release_date":"2019-01-03"}]}