{"page":1,"total_results":20000,"total_pages":1000,"results":[{"original_name":"ワンパンマン","genre_ids":[16,35,10759],"name":"One-Punch Man","popularity":311.809,"origin_country":["JP"],"vote_count":403,"first_air_date":"2015-10-04","backdrop_path":"\/s0w8JbuNNxL1YgaHeDWih12C3jG.jpg","original_language":"ja","id":63926,"vote_average":8,"overview":"Saitama is a hero who only became a hero for fun. After three years of “special” training, though, he’s become so strong that he’s practically invincible. In fact, he’s too strong—even his mightiest opponents are taken out with a single punch, and it turns out that being devastatingly powerful is actually kind of a bore. With his passion for being a hero lost along with his hair, yet still faced with new enemies every day, how much longer can he keep it going?","poster_path":"\/iE3s0lG5QVdEHOEZnoAxjmMtvne.jpg"},{"original_name":"The Flash","genre_ids":[18,10765],"name":"The Flash","popularity":274.418,"origin_country":["US"],"vote_count":2711,"first_air_date":"2014-10-07","backdrop_path":"\/jC1KqsFx8ZyqJyQa2Ohi7xgL7XC.jpg","original_language":"en","id":60735,"vote_average":6.7,"overview":"After a particle accelerator causes a freak storm, CSI Investigator Barry Allen is struck by lightning and falls into a coma. Months later he awakens with the power of super speed, granting him the ability to move through Central City like an unseen guardian angel. Though initially excited by his newfound powers, Barry is shocked to discover he is not the only \"meta-human\" who was created in the wake of the accelerator explosion -- and not everyone is using their new powers for good. Barry partners with S.T.A.R. Labs and dedicates his life to protect the innocent. For now, only a few close friends and associates know that Barry is literally the fastest man alive, but it won't be long before the world learns what Barry Allen has become...The Flash.","poster_path":"\/fki3kBlwJzFp8QohL43g9ReV455.jpg"},{"original_name":"Arrow","genre_ids":[80,18,9648,10759],"name":"Arrow","popularity":270.488,"origin_country":["US"],"vote_count":2501,"first_air_date":"2012-10-10","backdrop_path":"\/dKxkwAJfGuznW8Hu0mhaDJtna0n.jpg","original_language":"en","id":1412,"vote_average":5.8,"overview":"Spoiled billionaire playboy Oliver Queen is missing and presumed dead when his yacht is lost at sea. He returns five years later a changed man, determined to clean up the city as a hooded vigilante armed with a bow.","poster_path":"\/mo0FP1GxOFZT4UDde7RFDz5APXF.jpg"},{"original_name":"Fear the Walking Dead","genre_ids":[18,27],"name":"Fear the Walking Dead","popularity":192.225,"origin_country":["US"],"vote_count":939,"first_air_date":"2015-08-23","backdrop_path":"\/7r4FieFH6Eh6S55hi8c9LOiFENg.jpg","original_language":"en","id":62286,"vote_average":6.3,"overview":"What did the world look like as it was transforming into the horrifying apocalypse depicted in \"The Walking Dead\"? This spin-off set in Los Angeles, following new characters as they face the beginning of the end of the world, will answer that question.","poster_path":"\/oYXxZIiI7lVh6IUCCikImKwULHB.jpg"},{"original_name":"ワンピース","genre_ids":[16,35,10759],"name":"One Piece","popularity":179.816,"origin_country":["JP"],"vote_count":236,"first_air_date":"1999-10-20","backdrop_path":"\/xgs7zAF5VSGAK0QstH1Q0ivybXz.jpg","original_language":"ja","id":37854,"vote_average":7.7,"overview":"Years ago, the fearsome pirate king Gol D. Roger was executed, leaving a huge pile of treasure and the famous \"One Piece\" behind. Whoever claims the \"One Piece\" will be named the new pirate king. Monkey D. Luffy, a boy who consumed one of the \"Devil's Fruits\", has it in his head that he'll follow in the footsteps of his idol, the pirate Shanks, and find the One Piece. It helps, of course, that his body has the properties of rubber and he's surrounded by a bevy of skilled fighters and thieves to help him along the way. Monkey D. Luffy brings a bunch of his crew followed by, Roronoa Zoro, Nami, Usopp, Sanji, Tony-Tony Chopper, Nico Robin, Franky, and Brook. They will do anything to get the One Piece and become King of the Pirates!","poster_path":"\/gJI77i79KnRuc9mGPKADPZWAE8O.jpg"},{"original_name":"Game of Thrones","genre_ids":[18,10759,10765],"name":"Game of Thrones","popularity":170.406,"origin_country":["US"],"vote_count":6082,"first_air_date":"2011-04-17","backdrop_path":"\/qsD5OHqW7DSnaQ2afwz8Ptht1Xb.jpg","original_language":"en","id":1399,"vote_average":8.1,"overview":"Seven noble families fight for control of the mythical land of Westeros. Friction between the houses leads to full-scale war. All while a very ancient evil awakens in the farthest north. Amidst the war, a neglected military order of misfits, the Night's Watch, is all that stands between the realms of men and icy horrors beyond.","poster_path":"\/u3bZgnGQ9T01sWNhyveQz0wH0Hl.jpg"},{"original_name":"Chernobyl","genre_ids":[18],"name":"Chernobyl","popularity":165.202,"origin_country":["US"],"vote_count":295,"first_air_date":"2019-05-06","backdrop_path":"\/900tHlUYUkp7Ol04XFSoAaEIXcT.jpg","original_language":"en","id":87108,"vote_average":8.4,"overview":"A dramatization of the true story of one of the worst man-made catastrophes in history, the catastrophic nuclear accident at Chernobyl. A tale of the brave men and women who sacrificed to save Europe from unimaginable disaster.","poster_path":"\/hlLXt2tOPT6RRnjiUmoxyG1LTFi.jpg"},{"original_name":"ドラゴンボール","genre_ids":[16,35,10759,10765],"name":"Dragon Ball","popularity":159.903,"origin_country":["JP"],"vote_count":314,"first_air_date":"1986-02-26","backdrop_path":"\/iflq7ZJfso6WC7gk9l1tD3unWK.jpg","original_language":"ja","id":12609,"vote_average":7.2,"overview":"Long ago in the mountains, a fighting master known as Gohan discovered a strange boy whom he named Goku. Gohan raised him and trained Goku in martial arts until he died. The young and very strong boy was on his own, but easily managed. Then one day, Goku met a teenage girl named Bulma, whose search for the dragon balls brought her to Goku's home. Together, they set off to find all seven dragon balls in an adventure that would change Goku's life forever. See how Goku met his life long friends Bulma, Yamcha, Krillin, Master Roshi and more. And see his adventures as a boy, all leading up to  Dragonball Z and later  Dragonball GT.","poster_path":"\/3wx3EAMtqnbSLhGG8NrqXriCUIQ.jpg"},{"original_name":"Grey's Anatomy","genre_ids":[18],"name":"Grey's Anatomy","popularity":158.183,"origin_country":["US"],"vote_count":960,"first_air_date":"2005-03-27","backdrop_path":"\/y6JABtgWMVYPx84Rvy7tROU5aNH.jpg","original_language":"en","id":1416,"vote_average":6.3,"overview":"Follows the personal and professional lives of a group of doctors at Seattle’s Grey Sloan Memorial Hospital.","poster_path":"\/eqgIOObafPJitt8JNh1LuO2fvqu.jpg"},{"original_name":"Marvel's Agents of S.H.I.E.L.D.","genre_ids":[18,10759,10765],"name":"Marvel's Agents of S.H.I.E.L.D.","popularity":154.94,"origin_country":["US"],"vote_count":1296,"first_air_date":"2013-09-24","backdrop_path":"\/iWopHyAvuIDjGX10Yc3nn6UEebW.jpg","original_language":"en","id":1403,"vote_average":6.8,"overview":"Agent Phil Coulson of S.H.I.E.L.D. (Strategic Homeland Intervention, Enforcement and Logistics Division) puts together a team of agents to investigate the new, the strange and the unknown around the globe, protecting the ordinary from the extraordinary.","poster_path":"\/cXiETfFK1BTLest5fhTLfDLRdL6.jpg"},{"original_name":"The Simpsons","genre_ids":[16,35],"name":"The Simpsons","popularity":150.562,"origin_country":["US"],"vote_count":2031,"first_air_date":"1989-12-17","backdrop_path":"\/1pP0gg0iNGX06wSs19EQOvzfZIF.jpg","original_language":"en","id":456,"vote_average":7.1,"overview":"Set in Springfield, the average American town, the show focuses on the antics and everyday adventures of the Simpson family; Homer, Marge, Bart, Lisa and Maggie, as well as a virtual cast of thousands. Since the beginning, the series has been a pop culture icon, attracting hundreds of celebrities to guest star. The show has also made name for itself in its fearless satirical take on politics, media and American life in general.","poster_path":"\/yTZQkSsxUFJZJe67IenRM0AEklc.jpg"},{"original_name":"フェアリーテイル","genre_ids":[16,35,10759,10765],"name":"Fairy Tail","popularity":149.904,"origin_country":["JP"],"vote_count":175,"first_air_date":"2009-10-12","backdrop_path":"\/m2lugAG39sO0yCcuxEAu4fY5u1o.jpg","original_language":"ja","id":46261,"vote_average":6.4,"overview":"Lucy is a 17-year-old girl, who wants to be a full-fledged mage. One day when visiting Harujion Town, she meets Natsu, a young man who gets sick easily by any type of transportation. But Natsu isn't just any ordinary kid, he's a member of one of the world's most infamous mage guilds: Fairy Tail.","poster_path":"\/58GKcwFV3lpVOGzybeMrrNOjHpz.jpg"},{"original_name":"Dark","genre_ids":[80,18,9648,10765],"name":"Dark","popularity":148.525,"origin_country":["DE"],"vote_count":371,"first_air_date":"2017-12-01","backdrop_path":"\/2VpSajCTI26zddsp5cSjqfCBKEa.jpg","original_language":"de","id":70523,"vote_average":8,"overview":"A missing child causes four families to help each other for answers. What they could not imagine is that this mystery would be connected to innumerable other secrets of the small town.","poster_path":"\/b0j0iRtR8Sl2s4HXVlht8rpqbWT.jpg"},{"original_name":"ナルト 疾風伝","genre_ids":[16,35,18],"name":"Naruto Shippūden","popularity":148.149,"origin_country":["JP"],"vote_count":224,"first_air_date":"2007-02-15","backdrop_path":"\/c14vjmndzL9tBdooGsMznMFrFLo.jpg","original_language":"ja","id":31910,"vote_average":7.5,"overview":"Naruto Shippuuden is the continuation of the original animated TV series Naruto.The story revolves around an older and slightly more matured Uzumaki Naruto and his quest to save his friend Uchiha Sasuke from the grips of the snake-like Shinobi, Orochimaru. After 2 and a half years Naruto finally returns to his village of Konoha, and sets about putting his ambitions to work, though it will not be easy, as He has amassed a few (more dangerous) enemies, in the likes of the shinobi organization; Akatsuki.","poster_path":"\/zAYRe2bJxpWTVrwwmBc00VFkAf4.jpg"},{"original_name":"Family Guy","genre_ids":[16,35],"name":"Family Guy","popularity":143.059,"origin_country":["US"],"vote_count":1549,"first_air_date":"1999-01-31","backdrop_path":"\/3OFrs1ets87VmRvG78Zg5eJTZeq.jpg","original_language":"en","id":1434,"vote_average":6.5,"overview":"Sick, twisted, politically incorrect and Freakin' Sweet animated series featuring the adventures of the dysfunctional Griffin family. Bumbling Peter and long-suffering Lois have three kids. Stewie (a brilliant but sadistic baby bent on killing his mother and taking over the world), Meg (the oldest, and is the most unpopular girl in town) and Chris (the middle kid, he's not very bright but has a passion for movies). The final member of the family is Brian - a talking dog and much more than a pet, he keeps Stewie in check whilst sipping Martinis and sorting through his own life issues.","poster_path":"\/gBGUL1UTUNmdRQT8gA1LUV4yg39.jpg"},{"original_name":"鬼滅の刃","genre_ids":[16],"name":"Demon Slayer: Kimetsu no Yaiba","popularity":138.685,"origin_country":["JP"],"vote_count":15,"first_air_date":"2019-04-06","backdrop_path":"\/nTvM4mhqNlHIvUkI1gVnW6XP7GG.jpg","original_language":"ja","id":85937,"vote_average":6.3,"overview":"It is the Taisho Period in Japan. Tanjiro, a kindhearted boy who sells charcoal for a living, finds his family slaughtered by a demon. To make matters worse, his younger sister Nezuko, the sole survivor, has been transformed into a demon herself.\n\nThough devastated by this grim reality, Tanjiro resolves to become a “demon slayer” so that he can turn his sister back into a human, and kill the demon that massacred his family.","poster_path":"\/taT33NroOl2Fn8bUGj8bwdmNw3G.jpg"},{"original_name":"Gotham","genre_ids":[80,18,14],"name":"Gotham","popularity":135.752,"origin_country":["US"],"vote_count":1109,"first_air_date":"2014-09-22","backdrop_path":"\/mKBP1OCgCG0jw8DwVYlnYqVILtc.jpg","original_language":"en","id":60708,"vote_average":6.8,"overview":"Before there was Batman, there was GOTHAM. \n\nEveryone knows the name Commissioner Gordon. He is one of the crime world's greatest foes, a man whose reputation is synonymous with law and order. But what is known of Gordon's story and his rise from rookie detective to Police Commissioner? What did it take to navigate the multiple layers of corruption that secretly ruled Gotham City, the spawning ground of the world's most iconic villains? And what circumstances created them – the larger-than-life personas who would become Catwoman, The Penguin, The Riddler, Two-Face and The Joker? ","poster_path":"\/4XddcRDtnNjYmLRMYpbrhFxsbuq.jpg"},{"original_name":"Murder, She Wrote","genre_ids":[80,18,9648],"name":"Murder, She Wrote","popularity":134.981,"origin_country":["US"],"vote_count":79,"first_air_date":"1984-09-30","backdrop_path":"\/5M8bF0BwBk6RtJVrvpS9zj2bcxM.jpg","original_language":"en","id":484,"vote_average":7,"overview":"An unassuming mystery writer turned sleuth uses her professional insight to help solve real-life homicide cases.","poster_path":"\/j6DC2Xe0SZS6xKS2d6LWL1EGwzX.jpg"},{"original_name":"Supernatural","genre_ids":[18,9648,10765],"name":"Supernatural","popularity":134.529,"origin_country":["US"],"vote_count":1808,"first_air_date":"2005-09-13","backdrop_path":"\/o9OKe3M06QMLOzTl3l6GStYtnE9.jpg","original_language":"en","id":1622,"vote_average":7.3,"overview":"When they were boys, Sam and Dean Winchester lost their mother to a mysterious and demonic supernatural force. Subsequently, their father raised them to be soldiers. He taught them about the paranormal evil that lives in the dark corners and on the back roads of America ... and he taught them how to kill it. Now, the Winchester brothers crisscross the country in their '67 Chevy Impala, battling every kind of supernatural threat they encounter along the way. ","poster_path":"\/3iFm6Kz7iYoFaEcj4fLyZHAmTQA.jpg"},{"original_name":"The Blacklist","genre_ids":[80,18,9648],"name":"The Blacklist","popularity":132.761,"origin_country":["US"],"vote_count":1000,"first_air_date":"2013-09-23","backdrop_path":"\/fHwiAqIKragaCbNJo9Qs4lrccIN.jpg","original_language":"en","id":46952,"vote_average":7,"overview":"Raymond \"Red\" Reddington, one of the FBI's most wanted fugitives, surrenders in person at FBI Headquarters in Washington, D.C. He claims that he and the FBI have the same interests: bringing down dangerous criminals and terrorists. In the last two decades, he's made a list of criminals and terrorists that matter the most but the FBI cannot find because it does not know they exist. Reddington calls this \"The Blacklist\". Reddington will co-operate, but insists that he will speak only to Elizabeth Keen, a rookie FBI profiler.","poster_path":"\/bgbQCW4fE9b6wSOSC6Fb4FfVzsW.jpg"}]}